^C:\USERS\КАТЕНЬКА\SOURCE\REPOS\SKLBX5\DEBUG\SKLBX5.OBJ
C:\USERS\Катенька\SOURCE\REPOS\SKLBX5\DEBUG\SKLBX5.EXE
C:\USERS\Катенька\SOURCE\REPOS\SKLBX5\DEBUG\SKLBX5.ILK
C:\USERS\КАТЕНЬКА\SOURCE\REPOS\SKLBX5\DEBUG\SKLBX5.PDB
